0.00310
0.00214
0.00193
0.00198
0.00198
0.00203
0.00200
0.00198
0.00198
0.00197
0.00198
0.00195
0.00194
0.00191
0.00191
0.00191
0.00190
0.00191
0.00194
0.00194
0.00191
0.00195
0.00192
0.00200
0.00195
0.00204
0.00195
0.00204
0.00198
0.00252
0.00189
0.00188
0.00188
0.00188
0.00188
0.00188
0.00190
0.00189
0.00187
0.00193
0.00188
0.00188
0.00189
0.00190
0.00190
0.00188
0.00189
0.00191
0.00188
0.00190
0.00188
0.00189
0.00189
0.00191
0.00191
0.00188
0.00188
0.00189
0.00188
0.00189
0.00187
0.00187
0.00187
0.00187
0.00187
0.00187
0.00187
0.00187
0.00188
0.00187
0.00187
0.00187
0.00187
0.00187
0.00187
0.00188
0.00188
0.00187
0.00187
0.00187
0.00187
0.00187
0.00187
0.00187
0.00187
0.00187
0.00188
0.00187
0.00187
0.00187
0.00187
0.00187
0.00187
0.00187
0.00187
0.00187
0.00187
0.00187
0.00187
0.00187
