27.48261
28.46196
29.23323
29.51202
29.67840
29.93938
30.09516
29.66836
30.17745
30.22476
30.26946
30.27343
30.29349
30.16393
30.30018
30.32078
30.29720
30.33030
30.30762
30.35556
30.35139
30.36142
30.37416
30.38241
30.27368
30.36449
30.37862
30.39179
30.39448
30.39806
