26.42848
27.50376
28.38228
27.79302
28.59877
28.86615
28.91938
29.01406
29.08725
29.03006
29.08285
29.09722
29.13760
29.12291
29.15443
29.15584
29.17747
29.16143
29.12076
29.18552
29.14208
29.13796
29.18549
29.16771
29.18832
28.97856
29.12294
29.16718
29.17192
29.19501
29.21211
29.22142
29.22594
29.22737
29.22598
29.23350
29.23026
29.23521
29.23537
29.23231
29.23143
29.23336
29.23679
29.23751
29.23747
29.22646
29.23717
29.23605
29.23087
29.24280
29.23475
29.23949
29.23512
29.23468
29.24253
29.23024
29.22347
29.23958
29.21676
29.24520
29.25475
29.24991
29.25268
29.23689
29.24212
29.25069
29.25669
29.25549
29.25197
29.26054
29.25734
29.24255
29.25639
29.25793
29.24914
29.26384
29.22672
29.25956
29.25840
29.25736
29.18135
29.24173
29.25925
29.17660
29.25515
29.25302
29.26245
29.24877
29.25966
29.24706
29.25055
29.25501
29.25997
29.26054
29.26079
29.26123
29.25802
29.25109
29.25970
29.25923