1.0000000000
10.3836021217
0.0055795820
0.0000435905
577.6506986618
2.0000000000
3.9299714033
0.0021117525
0.0000164981
571.2596585751
3.0000000000
3.6387215073
0.0019552507
0.0000152754
568.3728530407
4.0000000000
3.4739475602
0.0018667101
0.0000145837
569.9616248608
5.0000000000
3.3816734628
0.0018171271
0.0000141963
569.1443305016
6.0000000000
3.2893100282
0.0017674960
0.0000138086
571.9098145962
7.0000000000
3.2234441097
0.0017321032
0.0000135321
575.1617054939
8.0000000000
3.1740922367
0.0017055842
0.0000133249
577.6732144356
9.0000000000
3.1445396290
0.0016897043
0.0000132008
579.4410567284
10.0000000000
3.1072334223
0.0016696579
0.0000130442
577.6378991604
11.0000000000
3.0869595610
0.0016587639
0.0000129591
579.6590006351
12.0000000000
3.0710016376
0.0016501890
0.0000128921
582.4258062840
13.0000000000
3.0768318947
0.0016533218
0.0000129166
580.1332771778
14.0000000000
3.0449752400
0.0016362038
0.0000127828
577.5217881203
15.0000000000
3.0719217476
0.0016506834
0.0000128960
580.9955387115
16.0000000000
3.0371613045
0.0016320050
0.0000127500
581.2713308334
17.0000000000
3.0245909060
0.0016252504
0.0000126973
577.4567561150
18.0000000000
3.0165664807
0.0016209385
0.0000126636
574.0234811306
19.0000000000
3.0090726931
0.0016169117
0.0000126321
571.6147718430
20.0000000000
3.0036457846
0.0016139956
0.0000126093
571.3876607418
21.0000000000
2.9991231766
0.0016115654
0.0000125904
572.1677300930
22.0000000000
2.9951815888
0.0016094474
0.0000125738
573.2025008202
23.0000000000
3.1225978017
0.0016779139
0.0000131087
571.5307512283
24.0000000000
3.0460961470
0.0016368061
0.0000127875
571.4686071873
25.0000000000
3.0113856136
0.0016181545
0.0000126418
572.0674769878
26.0000000000
2.9978102529
0.0016108599
0.0000125848
572.3766357899
27.0000000000
2.9896377979
0.0016064685
0.0000125505
571.0872440338
28.0000000000
2.9979187470
0.0016109182
0.0000125853
570.1866710186
29.0000000000
2.9832324956
0.0016030266
0.0000125236
573.3042962551
30.0000000000
2.9794026187
0.0016009686
0.0000125076
571.9604754448
31.0000000000
2.9580659550
0.0015895035
0.0000124180
571.6349859238
32.0000000000
2.9574131925
0.0015891527
0.0000124153
572.3967018127
33.0000000000
2.9554883549
0.0015881184
0.0000124072
572.5316681862
34.0000000000
2.9544945207
0.0015875844
0.0000124030
570.9882411957
35.0000000000
2.9538394561
0.0015872324
0.0000124003
571.6981918812
36.0000000000
2.9535224508
0.0015870620
0.0000123989
573.2531106472
37.0000000000
2.9533323906
0.0015869599
0.0000123981
576.3194155693
38.0000000000
2.9520315217
0.0015862609
0.0000123927
578.0487895012
39.0000000000
2.9518533211
0.0015861651
0.0000123919
572.5429615974
40.0000000000
2.9510539212
0.0015857356
0.0000123886
571.7015287876
41.0000000000
2.9514497926
0.0015859483
0.0000123902
572.3988487720
42.0000000000
2.9498992392
0.0015851151
0.0000123837
573.7933897972
43.0000000000
2.9603100684
0.0015907093
0.0000124274
574.7744877338
44.0000000000
2.9499091340
0.0015851204
0.0000123838
572.7518668175
45.0000000000
2.9495536924
0.0015849294
0.0000123823
571.9175159931
46.0000000000
2.9488827452
0.0015845689
0.0000123794
572.3771548271
47.0000000000
2.9481885980
0.0015841959
0.0000123765
576.2048187256
48.0000000000
2.9488374194
0.0015845446
0.0000123793
573.7694602013
49.0000000000
2.9483721647
0.0015842946
0.0000123773
573.5075747967
50.0000000000
2.9470923406
0.0015836068
0.0000123719
571.7264435291
51.0000000000
2.9469155784
0.0015835119
0.0000123712
570.5299727917
52.0000000000
2.9469384769
0.0015835242
0.0000123713
572.6142101288
53.0000000000
2.9458796879
0.0015829552
0.0000123668
573.0151102543
54.0000000000
2.9461009076
0.0015830741
0.0000123678
580.2995679379
55.0000000000
2.9458408754
0.0015829344
0.0000123667
580.6970310211
56.0000000000
2.9451308699
0.0015825529
0.0000123637
581.5834770203
57.0000000000
2.9450217752
0.0015824942
0.0000123632
578.8637914658
58.0000000000
2.9499935476
0.0015851658
0.0000123841
581.1739542484
59.0000000000
2.9441538472
0.0015820279
0.0000123596
583.0452377796
60.0000000000
2.9434768808
0.0015816641
0.0000123568
581.7336044312
61.0000000000
2.9392351954
0.0015793848
0.0000123389
581.7136263847
62.0000000000
2.9389674620
0.0015792410
0.0000123378
581.5217998028
63.0000000000
2.9387404046
0.0015791190
0.0000123369
580.3179423809
64.0000000000
2.9382464157
0.0015788535
0.0000123348
578.5560245514
65.0000000000
2.9381300593
0.0015787910
0.0000123343
578.4694142342
66.0000000000
2.9383557289
0.0015789123
0.0000123353
583.1060316563
67.0000000000
2.9377966182
0.0015786118
0.0000123329
580.4293136597
68.0000000000
2.9378446061
0.0015786376
0.0000123331
580.6525201797
69.0000000000
2.9384558792
0.0015789661
0.0000123357
579.8581588268
70.0000000000
2.9379892520
0.0015787153
0.0000123337
579.0973589420
71.0000000000
2.9380099399
0.0015787265
0.0000123338
580.3406605721
72.0000000000
2.9369638937
0.0015781644
0.0000123294
579.3318917751
73.0000000000
2.9371305056
0.0015782539
0.0000123301
580.2659177780
74.0000000000
2.9377224077
0.0015785720
0.0000123326
579.8868248463
75.0000000000
2.9374686044
0.0015784356
0.0000123315
579.9909825325
76.0000000000
2.9372444386
0.0015783151
0.0000123306
580.7129337788
77.0000000000
2.9365603939
0.0015779476
0.0000123277
578.5047352314
78.0000000000
2.9372161727
0.0015782999
0.0000123305
579.6803212166
79.0000000000
2.9370616296
0.0015782169
0.0000123298
577.1822853088
80.0000000000
2.9370017084
0.0015781847
0.0000123296
578.3051104546
81.0000000000
2.9366010382
0.0015779694
0.0000123279
583.1485536098
82.0000000000
2.9363506996
0.0015778349
0.0000123268
579.7890975475
83.0000000000
2.9372697722
0.0015783287
0.0000123307
584.9176759720
84.0000000000
2.9365926897
0.0015779649
0.0000123279
581.8110723495
85.0000000000
2.9367739303
0.0015780623
0.0000123286
580.1672778130
86.0000000000
2.9361477417
0.0015777258
0.0000123260
579.9384210110
87.0000000000
2.9368925828
0.0015781261
0.0000123291
579.7150919437
88.0000000000
2.9365309718
0.0015779317
0.0000123276
578.8748607635
89.0000000000
2.9364022629
0.0015778626
0.0000123271
578.0993812084
90.0000000000
2.9358787058
0.0015775812
0.0000123249
577.6285109520
91.0000000000
2.9352919345
0.0015772660
0.0000123224
579.4116718769
92.0000000000
2.9352000940
0.0015772166
0.0000123220
582.6376724243
93.0000000000
2.9348852218
0.0015770474
0.0000123207
576.9600915909
94.0000000000
2.9352205687
0.0015772276
0.0000123221
575.6151475906
95.0000000000
2.9354412601
0.0015773462
0.0000123230
579.6837601662
96.0000000000
2.9346843852
0.0015769395
0.0000123198
580.0616464615
97.0000000000
2.9350895177
0.0015771572
0.0000123215
577.5603742599
98.0000000000
2.9344776393
0.0015768284
0.0000123190
578.0776557922
99.0000000000
2.9345771332
0.0015768819
0.0000123194
581.1891713142
100.0000000000
2.9343226330
0.0015767451
0.0000123183
579.0644330978
